Ex1/transcript
# vsim -c fp_mult_tb -do "run -all; quit" 
# Start time: 22:01:57 on May 30,2025
# ** Note: (vsim-8009) Loading existing optimized design _opt41
# //  Questa Intel Starter FPGA Edition-64
# //  Version 2023.3 win64 Jul 17 2023
# //
# //  Copyright 1991-2023 Mentor Graphics Corporation
# //  All Rights Reserved.
# //
# //  QuestaSim and its associated documentation contain trade
# //  secrets and commercial or financial information that are the property of
# //  Mentor Graphics Corporation and are privileged, confidential,
# //  and exempt from disclosure under the Freedom of Information Act,
# //  5 U.S.C. Section 552. Furthermore, this information
# //  is prohibited from disclosure under the Trade Secrets Act,
# //  18 U.S.C. Section 1905.
# //
# Loading sv_std.std
# Loading work.rounding_pkg(fast)
# Loading work.exception_mult_sv_unit(fast)
# Loading work.round_mult_sv_unit(fast)
# Loading work.fp_mult_sv_unit(fast)
# Loading work.fp_mult_tb_sv_unit(fast)
# Loading work.fp_mult_tb(fast)
# run -all
# Testing with rnd=000
# FAIL: a=e3337da4, b=1684c7c6, rnd=000, got z=40800000, expected z=ba3a31b4
# Testing with rnd=001
# PASS: a=e3337da4, b=1684c7c6, rnd=001, z=ba3a31b4
# Testing with rnd=010
# PASS: a=e3337da4, b=1684c7c6, rnd=010, z=ba3a31b4
# Testing with rnd=011
# PASS: a=e3337da4, b=1684c7c6, rnd=011, z=ba3a31b5
# Testing with rnd=100
# PASS: a=e3337da4, b=1684c7c6, rnd=100, z=ba3a31b4
# Testing with rnd=101
# PASS: a=e3337da4, b=1684c7c6, rnd=101, z=ba3a31b5
# FAIL: a=ffc00001 (neg_SNAN), b=ffc00001 (neg_SNAN), got z=ff800000, expected z=7f800000
# FAIL: a=ffc00001 (neg_SNAN), b=7fc00001 (pos_SNAN), got z=7f800000, expected z=ff800000
# FAIL: a=ffc00001 (neg_SNAN), b=ffe00000 (neg_QNAN), got z=ff800000, expected z=7f800000
# FAIL: a=ffc00001 (neg_SNAN), b=7fe00000 (pos_QNAN), got z=7f800000, expected z=ff800000
# FAIL: a=ffc00001 (neg_SNAN), b=ff800000 (neg_INF), got z=ff800000, expected z=7f800000
# FAIL: a=ffc00001 (neg_SNAN), b=7f800000 (pos_INF), got z=7f800000, expected z=ff800000
# FAIL: a=ffc00001 (neg_SNAN), b=bf800000 (neg_normal), got z=ff800000, expected z=7f800000
# FAIL: a=ffc00001 (neg_SNAN), b=3f800000 (pos_normal), got z=7f800000, expected z=ff800000
# ** Error: NaN status bit set but exponents of 'a' and 'b' are not in required condition
#    Time: 435 ns Started: 415 ns  Scope: fp_mult_tb.dut.dutbound_z File: test_status_z_combinations.sv Line: 22
# ** Error: NaN status bit set but exponents of 'a' and 'b' are not in required condition
#    Time: 445 ns Started: 425 ns  Scope: fp_mult_tb.dut.dutbound_z File: test_status_z_combinations.sv Line: 22
# ** Error: NaN status bit set but exponents of 'a' and 'b' are not in required condition
#    Time: 455 ns Started: 435 ns  Scope: fp_mult_tb.dut.dutbound_z File: test_status_z_combinations.sv Line: 22
# PASS: a=ffc00001 (neg_SNAN), b=80000001 (neg_denormal), z=7f800000
# PASS: a=ffc00001 (neg_SNAN), b=00000001 (pos_denormal), z=7f800000
# PASS: a=ffc00001 (neg_SNAN), b=80000000 (neg_zero), z=7f800000
# PASS: a=ffc00001 (neg_SNAN), b=00000000 (pos_zero), z=7f800000
# PASS: a=7fc00001 (pos_SNAN), b=ffc00001 (neg_SNAN), z=ff800000
# FAIL: a=7fc00001 (pos_SNAN), b=7fc00001 (pos_SNAN), got z=ff800000, expected z=7f800000
# FAIL: a=7fc00001 (pos_SNAN), b=ffe00000 (neg_QNAN), got z=7f800000, expected z=ff800000
# FAIL: a=7fc00001 (pos_SNAN), b=7fe00000 (pos_QNAN), got z=ff800000, expected z=7f800000
# FAIL: a=7fc00001 (pos_SNAN), b=ff800000 (neg_INF), got z=7f800000, expected z=ff800000
# FAIL: a=7fc00001 (pos_SNAN), b=7f800000 (pos_INF), got z=ff800000, expected z=7f800000
# FAIL: a=7fc00001 (pos_SNAN), b=bf800000 (neg_normal), got z=7f800000, expected z=ff800000
# FAIL: a=7fc00001 (pos_SNAN), b=3f800000 (pos_normal), got z=ff800000, expected z=7f800000
# ** Error: NaN status bit set but exponents of 'a' and 'b' are not in required condition
#    Time: 795 ns Started: 775 ns  Scope: fp_mult_tb.dut.dutbound_z File: test_status_z_combinations.sv Line: 22
# ** Error: NaN status bit set but exponents of 'a' and 'b' are not in required condition
#    Time: 805 ns Started: 785 ns  Scope: fp_mult_tb.dut.dutbound_z File: test_status_z_combinations.sv Line: 22
# ** Error: NaN status bit set but exponents of 'a' and 'b' are not in required condition
#    Time: 815 ns Started: 795 ns  Scope: fp_mult_tb.dut.dutbound_z File: test_status_z_combinations.sv Line: 22
# PASS: a=7fc00001 (pos_SNAN), b=80000001 (neg_denormal), z=7f800000
# PASS: a=7fc00001 (pos_SNAN), b=00000001 (pos_denormal), z=7f800000
# PASS: a=7fc00001 (pos_SNAN), b=80000000 (neg_zero), z=7f800000
# PASS: a=7fc00001 (pos_SNAN), b=00000000 (pos_zero), z=7f800000
# PASS: a=ffe00000 (neg_QNAN), b=ffc00001 (neg_SNAN), z=7f800000
# FAIL: a=ffe00000 (neg_QNAN), b=7fc00001 (pos_SNAN), got z=7f800000, expected z=ff800000
# FAIL: a=ffe00000 (neg_QNAN), b=ffe00000 (neg_QNAN), got z=ff800000, expected z=7f800000
# FAIL: a=ffe00000 (neg_QNAN), b=7fe00000 (pos_QNAN), got z=7f800000, expected z=ff800000
# FAIL: a=ffe00000 (neg_QNAN), b=ff800000 (neg_INF), got z=ff800000, expected z=7f800000
# FAIL: a=ffe00000 (neg_QNAN), b=7f800000 (pos_INF), got z=7f800000, expected z=ff800000
# FAIL: a=ffe00000 (neg_QNAN), b=bf800000 (neg_normal), got z=ff800000, expected z=7f800000
# FAIL: a=ffe00000 (neg_QNAN), b=3f800000 (pos_normal), got z=7f800000, expected z=ff800000
# ** Error: NaN status bit set but exponents of 'a' and 'b' are not in required condition
#    Time: 1155 ns Started: 1135 ns  Scope: fp_mult_tb.dut.dutbound_z File: test_status_z_combinations.sv Line: 22
# ** Error: NaN status bit set but exponents of 'a' and 'b' are not in required condition
#    Time: 1165 ns Started: 1145 ns  Scope: fp_mult_tb.dut.dutbound_z File: test_status_z_combinations.sv Line: 22
# ** Error: NaN status bit set but exponents of 'a' and 'b' are not in required condition
#    Time: 1175 ns Started: 1155 ns  Scope: fp_mult_tb.dut.dutbound_z File: test_status_z_combinations.sv Line: 22
# PASS: a=ffe00000 (neg_QNAN), b=80000001 (neg_denormal), z=7f800000
# PASS: a=ffe00000 (neg_QNAN), b=00000001 (pos_denormal), z=7f800000
# PASS: a=ffe00000 (neg_QNAN), b=80000000 (neg_zero), z=7f800000
# PASS: a=ffe00000 (neg_QNAN), b=00000000 (pos_zero), z=7f800000
# PASS: a=7fe00000 (pos_QNAN), b=ffc00001 (neg_SNAN), z=ff800000
# FAIL: a=7fe00000 (pos_QNAN), b=7fc00001 (pos_SNAN), got z=ff800000, expected z=7f800000
# FAIL: a=7fe00000 (pos_QNAN), b=ffe00000 (neg_QNAN), got z=7f800000, expected z=ff800000
# FAIL: a=7fe00000 (pos_QNAN), b=7fe00000 (pos_QNAN), got z=ff800000, expected z=7f800000
# FAIL: a=7fe00000 (pos_QNAN), b=ff800000 (neg_INF), got z=7f800000, expected z=ff800000
# FAIL: a=7fe00000 (pos_QNAN), b=7f800000 (pos_INF), got z=ff800000, expected z=7f800000
# FAIL: a=7fe00000 (pos_QNAN), b=bf800000 (neg_normal), got z=7f800000, expected z=ff800000
# FAIL: a=7fe00000 (pos_QNAN), b=3f800000 (pos_normal), got z=ff800000, expected z=7f800000
# ** Error: NaN status bit set but exponents of 'a' and 'b' are not in required condition
#    Time: 1515 ns Started: 1495 ns  Scope: fp_mult_tb.dut.dutbound_z File: test_status_z_combinations.sv Line: 22
# ** Error: NaN status bit set but exponents of 'a' and 'b' are not in required condition
#    Time: 1525 ns Started: 1505 ns  Scope: fp_mult_tb.dut.dutbound_z File: test_status_z_combinations.sv Line: 22
# ** Error: NaN status bit set but exponents of 'a' and 'b' are not in required condition
#    Time: 1535 ns Started: 1515 ns  Scope: fp_mult_tb.dut.dutbound_z File: test_status_z_combinations.sv Line: 22
# PASS: a=7fe00000 (pos_QNAN), b=80000001 (neg_denormal), z=7f800000
# PASS: a=7fe00000 (pos_QNAN), b=00000001 (pos_denormal), z=7f800000
# PASS: a=7fe00000 (pos_QNAN), b=80000000 (neg_zero), z=7f800000
# PASS: a=7fe00000 (pos_QNAN), b=00000000 (pos_zero), z=7f800000
# PASS: a=ff800000 (neg_INF), b=ffc00001 (neg_SNAN), z=7f800000
# FAIL: a=ff800000 (neg_INF), b=7fc00001 (pos_SNAN), got z=7f800000, expected z=ff800000
# FAIL: a=ff800000 (neg_INF), b=ffe00000 (neg_QNAN), got z=ff800000, expected z=7f800000
# FAIL: a=ff800000 (neg_INF), b=7fe00000 (pos_QNAN), got z=7f800000, expected z=ff800000
# FAIL: a=ff800000 (neg_INF), b=ff800000 (neg_INF), got z=ff800000, expected z=7f800000
# FAIL: a=ff800000 (neg_INF), b=7f800000 (pos_INF), got z=7f800000, expected z=ff800000
# FAIL: a=ff800000 (neg_INF), b=bf800000 (neg_normal), got z=ff800000, expected z=7f800000
# FAIL: a=ff800000 (neg_INF), b=3f800000 (pos_normal), got z=7f800000, expected z=ff800000
# PASS: a=ff800000 (neg_INF), b=80000001 (neg_denormal), z=7f800000
# PASS: a=ff800000 (neg_INF), b=00000001 (pos_denormal), z=7f800000
# PASS: a=ff800000 (neg_INF), b=80000000 (neg_zero), z=7f800000
# PASS: a=ff800000 (neg_INF), b=00000000 (pos_zero), z=7f800000
# PASS: a=7f800000 (pos_INF), b=ffc00001 (neg_SNAN), z=ff800000
# FAIL: a=7f800000 (pos_INF), b=7fc00001 (pos_SNAN), got z=ff800000, expected z=7f800000
# FAIL: a=7f800000 (pos_INF), b=ffe00000 (neg_QNAN), got z=7f800000, expected z=ff800000
# FAIL: a=7f800000 (pos_INF), b=7fe00000 (pos_QNAN), got z=ff800000, expected z=7f800000
# FAIL: a=7f800000 (pos_INF), b=ff800000 (neg_INF), got z=7f800000, expected z=ff800000
# FAIL: a=7f800000 (pos_INF), b=7f800000 (pos_INF), got z=ff800000, expected z=7f800000
# FAIL: a=7f800000 (pos_INF), b=bf800000 (neg_normal), got z=7f800000, expected z=ff800000
# FAIL: a=7f800000 (pos_INF), b=3f800000 (pos_normal), got z=ff800000, expected z=7f800000
# PASS: a=7f800000 (pos_INF), b=80000001 (neg_denormal), z=7f800000
# PASS: a=7f800000 (pos_INF), b=00000001 (pos_denormal), z=7f800000
# PASS: a=7f800000 (pos_INF), b=80000000 (neg_zero), z=7f800000
# PASS: a=7f800000 (pos_INF), b=00000000 (pos_zero), z=7f800000
# PASS: a=bf800000 (neg_normal), b=ffc00001 (neg_SNAN), z=7f800000
# FAIL: a=bf800000 (neg_normal), b=7fc00001 (pos_SNAN), got z=7f800000, expected z=ff800000
# ** Error: NaN status bit set but exponents of 'a' and 'b' are not in required condition
#    Time: 2415 ns Started: 2395 ns  Scope: fp_mult_tb.dut.dutbound_z File: test_status_z_combinations.sv Line: 22
# ** Error: NaN status bit set but exponents of 'a' and 'b' are not in required condition
#    Time: 2425 ns Started: 2405 ns  Scope: fp_mult_tb.dut.dutbound_z File: test_status_z_combinations.sv Line: 22
# ** Error: NaN status bit set but exponents of 'a' and 'b' are not in required condition
#    Time: 2435 ns Started: 2415 ns  Scope: fp_mult_tb.dut.dutbound_z File: test_status_z_combinations.sv Line: 22
# FAIL: a=bf800000 (neg_normal), b=ffe00000 (neg_QNAN), got z=ff800000, expected z=7f800000
# ** Error: NaN status bit set but exponents of 'a' and 'b' are not in required condition
#    Time: 2445 ns Started: 2425 ns  Scope: fp_mult_tb.dut.dutbound_z File: test_status_z_combinations.sv Line: 22
# ** Error: NaN status bit set but exponents of 'a' and 'b' are not in required condition
#    Time: 2455 ns Started: 2435 ns  Scope: fp_mult_tb.dut.dutbound_z File: test_status_z_combinations.sv Line: 22
# ** Error: NaN status bit set but exponents of 'a' and 'b' are not in required condition
#    Time: 2465 ns Started: 2445 ns  Scope: fp_mult_tb.dut.dutbound_z File: test_status_z_combinations.sv Line: 22
# FAIL: a=bf800000 (neg_normal), b=7fe00000 (pos_QNAN), got z=7f800000, expected z=ff800000
# ** Error: NaN status bit set but exponents of 'a' and 'b' are not in required condition
#    Time: 2475 ns Started: 2455 ns  Scope: fp_mult_tb.dut.dutbound_z File: test_status_z_combinations.sv Line: 22
# ** Error: NaN status bit set but exponents of 'a' and 'b' are not in required condition
#    Time: 2485 ns Started: 2465 ns  Scope: fp_mult_tb.dut.dutbound_z File: test_status_z_combinations.sv Line: 22
# ** Error: NaN status bit set but exponents of 'a' and 'b' are not in required condition
#    Time: 2495 ns Started: 2475 ns  Scope: fp_mult_tb.dut.dutbound_z File: test_status_z_combinations.sv Line: 22
# FAIL: a=bf800000 (neg_normal), b=ff800000 (neg_INF), got z=ff800000, expected z=7f800000
# ** Error: NaN status bit set but exponents of 'a' and 'b' are not in required condition
#    Time: 2505 ns Started: 2485 ns  Scope: fp_mult_tb.dut.dutbound_z File: test_status_z_combinations.sv Line: 22
# ** Error: NaN status bit set but exponents of 'a' and 'b' are not in required condition
#    Time: 2515 ns Started: 2495 ns  Scope: fp_mult_tb.dut.dutbound_z File: test_status_z_combinations.sv Line: 22
# ** Error: NaN status bit set but exponents of 'a' and 'b' are not in required condition
#    Time: 2525 ns Started: 2505 ns  Scope: fp_mult_tb.dut.dutbound_z File: test_status_z_combinations.sv Line: 22
# FAIL: a=bf800000 (neg_normal), b=7f800000 (pos_INF), got z=7f800000, expected z=ff800000
# ** Error: Infinity and Huge asserted simultaneously
#    Time: 2565 ns  Scope: fp_mult_tb.dut.dutbound File: test_status_bits.sv Line: 14
# ** Error: Infinity and Inexact asserted simultaneously
#    Time: 2565 ns  Scope: fp_mult_tb.dut.dutbound File: test_status_bits.sv Line: 15
# FAIL: a=bf800000 (neg_normal), b=bf800000 (neg_normal), got z=ff800000, expected z=3f800000
# ** Error: Huge status bit set but exponent and mantissa of 'z' are not in required condition
#    Time: 2565 ns Started: 2565 ns  Scope: fp_mult_tb.dut.dutbound_z File: test_status_z_combinations.sv Line: 26
# FAIL: a=bf800000 (neg_normal), b=3f800000 (pos_normal), got z=3f800000, expected z=bf800000
# FAIL: a=bf800000 (neg_normal), b=80000001 (neg_denormal), got z=80000000, expected z=00000000
# FAIL: a=bf800000 (neg_normal), b=00000001 (pos_denormal), got z=00000000, expected z=80000000
# FAIL: a=bf800000 (neg_normal), b=80000000 (neg_zero), got z=80000000, expected z=00000000
# FAIL: a=bf800000 (neg_normal), b=00000000 (pos_zero), got z=00000000, expected z=80000000
# PASS: a=3f800000 (pos_normal), b=ffc00001 (neg_SNAN), z=ff800000
# FAIL: a=3f800000 (pos_normal), b=7fc00001 (pos_SNAN), got z=ff800000, expected z=7f800000
# ** Error: NaN status bit set but exponents of 'a' and 'b' are not in required condition
#    Time: 2775 ns Started: 2755 ns  Scope: fp_mult_tb.dut.dutbound_z File: test_status_z_combinations.sv Line: 22
# ** Error: NaN status bit set but exponents of 'a' and 'b' are not in required condition
#    Time: 2785 ns Started: 2765 ns  Scope: fp_mult_tb.dut.dutbound_z File: test_status_z_combinations.sv Line: 22
# ** Error: NaN status bit set but exponents of 'a' and 'b' are not in required condition
#    Time: 2795 ns Started: 2775 ns  Scope: fp_mult_tb.dut.dutbound_z File: test_status_z_combinations.sv Line: 22
# FAIL: a=3f800000 (pos_normal), b=ffe00000 (neg_QNAN), got z=7f800000, expected z=ff800000
# ** Error: NaN status bit set but exponents of 'a' and 'b' are not in required condition
#    Time: 2805 ns Started: 2785 ns  Scope: fp_mult_tb.dut.dutbound_z File: test_status_z_combinations.sv Line: 22
# ** Error: NaN status bit set but exponents of 'a' and 'b' are not in required condition
#    Time: 2815 ns Started: 2795 ns  Scope: fp_mult_tb.dut.dutbound_z File: test_status_z_combinations.sv Line: 22
# ** Error: NaN status bit set but exponents of 'a' and 'b' are not in required condition
#    Time: 2825 ns Started: 2805 ns  Scope: fp_mult_tb.dut.dutbound_z File: test_status_z_combinations.sv Line: 22
# FAIL: a=3f800000 (pos_normal), b=7fe00000 (pos_QNAN), got z=ff800000, expected z=7f800000
# ** Error: NaN status bit set but exponents of 'a' and 'b' are not in required condition
#    Time: 2835 ns Started: 2815 ns  Scope: fp_mult_tb.dut.dutbound_z File: test_status_z_combinations.sv Line: 22
# ** Error: NaN status bit set but exponents of 'a' and 'b' are not in required condition
#    Time: 2845 ns Started: 2825 ns  Scope: fp_mult_tb.dut.dutbound_z File: test_status_z_combinations.sv Line: 22
# ** Error: NaN status bit set but exponents of 'a' and 'b' are not in required condition
#    Time: 2855 ns Started: 2835 ns  Scope: fp_mult_tb.dut.dutbound_z File: test_status_z_combinations.sv Line: 22
# FAIL: a=3f800000 (pos_normal), b=ff800000 (neg_INF), got z=7f800000, expected z=ff800000
# ** Error: NaN status bit set but exponents of 'a' and 'b' are not in required condition
#    Time: 2865 ns Started: 2845 ns  Scope: fp_mult_tb.dut.dutbound_z File: test_status_z_combinations.sv Line: 22
# ** Error: NaN status bit set but exponents of 'a' and 'b' are not in required condition
#    Time: 2875 ns Started: 2855 ns  Scope: fp_mult_tb.dut.dutbound_z File: test_status_z_combinations.sv Line: 22
# ** Error: NaN status bit set but exponents of 'a' and 'b' are not in required condition
#    Time: 2885 ns Started: 2865 ns  Scope: fp_mult_tb.dut.dutbound_z File: test_status_z_combinations.sv Line: 22
# FAIL: a=3f800000 (pos_normal), b=7f800000 (pos_INF), got z=ff800000, expected z=7f800000
# ** Error: Infinity and Huge asserted simultaneously
#    Time: 2925 ns  Scope: fp_mult_tb.dut.dutbound File: test_status_bits.sv Line: 14
# ** Error: Infinity and Inexact asserted simultaneously
#    Time: 2925 ns  Scope: fp_mult_tb.dut.dutbound File: test_status_bits.sv Line: 15
# FAIL: a=3f800000 (pos_normal), b=bf800000 (neg_normal), got z=7f800000, expected z=bf800000
# ** Error: Huge status bit set but exponent and mantissa of 'z' are not in required condition
#    Time: 2925 ns Started: 2925 ns  Scope: fp_mult_tb.dut.dutbound_z File: test_status_z_combinations.sv Line: 26
# FAIL: a=3f800000 (pos_normal), b=3f800000 (pos_normal), got z=bf800000, expected z=3f800000
# FAIL: a=3f800000 (pos_normal), b=80000001 (neg_denormal), got z=00000000, expected z=80000000
# FAIL: a=3f800000 (pos_normal), b=00000001 (pos_denormal), got z=80000000, expected z=00000000
# FAIL: a=3f800000 (pos_normal), b=80000000 (neg_zero), got z=00000000, expected z=80000000
# FAIL: a=3f800000 (pos_normal), b=00000000 (pos_zero), got z=80000000, expected z=00000000
# PASS: a=80000001 (neg_denormal), b=ffc00001 (neg_SNAN), z=7f800000
# PASS: a=80000001 (neg_denormal), b=7fc00001 (pos_SNAN), z=7f800000
# PASS: a=80000001 (neg_denormal), b=ffe00000 (neg_QNAN), z=7f800000
# PASS: a=80000001 (neg_denormal), b=7fe00000 (pos_QNAN), z=7f800000
# PASS: a=80000001 (neg_denormal), b=ff800000 (neg_INF), z=7f800000
# PASS: a=80000001 (neg_denormal), b=7f800000 (pos_INF), z=7f800000
# FAIL: a=80000001 (neg_denormal), b=bf800000 (neg_normal), got z=80000000, expected z=00000000
# FAIL: a=80000001 (neg_denormal), b=3f800000 (pos_normal), got z=00000000, expected z=80000000
# FAIL: a=80000001 (neg_denormal), b=80000001 (neg_denormal), got z=80000000, expected z=00000000
# FAIL: a=80000001 (neg_denormal), b=00000001 (pos_denormal), got z=00000000, expected z=80000000
# FAIL: a=80000001 (neg_denormal), b=80000000 (neg_zero), got z=80000000, expected z=00000000
# FAIL: a=80000001 (neg_denormal), b=00000000 (pos_zero), got z=00000000, expected z=80000000
# PASS: a=00000001 (pos_denormal), b=ffc00001 (neg_SNAN), z=7f800000
# PASS: a=00000001 (pos_denormal), b=7fc00001 (pos_SNAN), z=7f800000
# PASS: a=00000001 (pos_denormal), b=ffe00000 (neg_QNAN), z=7f800000
# PASS: a=00000001 (pos_denormal), b=7fe00000 (pos_QNAN), z=7f800000
# PASS: a=00000001 (pos_denormal), b=ff800000 (neg_INF), z=7f800000
# PASS: a=00000001 (pos_denormal), b=7f800000 (pos_INF), z=7f800000
# FAIL: a=00000001 (pos_denormal), b=bf800000 (neg_normal), got z=00000000, expected z=80000000
# FAIL: a=00000001 (pos_denormal), b=3f800000 (pos_normal), got z=80000000, expected z=00000000
# FAIL: a=00000001 (pos_denormal), b=80000001 (neg_denormal), got z=00000000, expected z=80000000
# FAIL: a=00000001 (pos_denormal), b=00000001 (pos_denormal), got z=80000000, expected z=00000000
# FAIL: a=00000001 (pos_denormal), b=80000000 (neg_zero), got z=00000000, expected z=80000000
# FAIL: a=00000001 (pos_denormal), b=00000000 (pos_zero), got z=80000000, expected z=00000000
# PASS: a=80000000 (neg_zero), b=ffc00001 (neg_SNAN), z=7f800000
# PASS: a=80000000 (neg_zero), b=7fc00001 (pos_SNAN), z=7f800000
# PASS: a=80000000 (neg_zero), b=ffe00000 (neg_QNAN), z=7f800000
# PASS: a=80000000 (neg_zero), b=7fe00000 (pos_QNAN), z=7f800000
# PASS: a=80000000 (neg_zero), b=ff800000 (neg_INF), z=7f800000
# PASS: a=80000000 (neg_zero), b=7f800000 (pos_INF), z=7f800000
# FAIL: a=80000000 (neg_zero), b=bf800000 (neg_normal), got z=80000000, expected z=00000000
# FAIL: a=80000000 (neg_zero), b=3f800000 (pos_normal), got z=00000000, expected z=80000000
# FAIL: a=80000000 (neg_zero), b=80000001 (neg_denormal), got z=80000000, expected z=00000000
# FAIL: a=80000000 (neg_zero), b=00000001 (pos_denormal), got z=00000000, expected z=80000000
# FAIL: a=80000000 (neg_zero), b=80000000 (neg_zero), got z=80000000, expected z=00000000
# FAIL: a=80000000 (neg_zero), b=00000000 (pos_zero), got z=00000000, expected z=80000000
# PASS: a=00000000 (pos_zero), b=ffc00001 (neg_SNAN), z=7f800000
# PASS: a=00000000 (pos_zero), b=7fc00001 (pos_SNAN), z=7f800000
# PASS: a=00000000 (pos_zero), b=ffe00000 (neg_QNAN), z=7f800000
# PASS: a=00000000 (pos_zero), b=7fe00000 (pos_QNAN), z=7f800000
# PASS: a=00000000 (pos_zero), b=ff800000 (neg_INF), z=7f800000
# PASS: a=00000000 (pos_zero), b=7f800000 (pos_INF), z=7f800000
# FAIL: a=00000000 (pos_zero), b=bf800000 (neg_normal), got z=00000000, expected z=80000000
# FAIL: a=00000000 (pos_zero), b=3f800000 (pos_normal), got z=80000000, expected z=00000000
# FAIL: a=00000000 (pos_zero), b=80000001 (neg_denormal), got z=00000000, expected z=80000000
# FAIL: a=00000000 (pos_zero), b=00000001 (pos_denormal), got z=80000000, expected z=00000000
# FAIL: a=00000000 (pos_zero), b=80000000 (neg_zero), got z=00000000, expected z=80000000
# FAIL: a=00000000 (pos_zero), b=00000000 (pos_zero), got z=80000000, expected z=00000000
